<svg xmlns="http://www.w3.org/2000/svg" width="247.641" height="41.209" viewBox="0 0 247.641 41.209">
    <defs>
        <style>
            .cls-1,.cls-2{fill:#fff}.cls-1{stroke:#707070}.cls-2{stroke:#000;stroke-linecap:round;stroke-linejoin:round}
        </style>
    </defs>
    <g id="logo" transform="translate(-1.2 .609)">
        <g id="Group_39" data-name="Group 39" transform="translate(50.122 15.865)">
            <path id="Path_32" d="M77.6 43.2l-9.236-19.34h-.079L67.257 40.2c-.079 1.816 1.263 2.21 2.921 2.289v.71H62.6v-.71c2.684 0 3-.553 3.158-3.868l.868-14.13c.158-2.368.079-3.079-2.21-3.158V20.7h5.526L78.7 38.935 87.387 20.7h5.289v.632c-1.737.158-2.447.158-2.368 1.421l1.184 16.42c.237 3.315.474 3.315 3.158 3.315v.71h-9.315v-.71c1.737 0 3.394-.474 3.237-2.368l-1.027-16.262h-.079L78.388 43.2z" class="cls-1" data-name="Path 32" transform="translate(-62.6 -20.147)"/>
            <path id="Path_33" d="M117.7 31.446h-6.236l3.079-8.368zm.632 1.579l2.447 6.552a3.774 3.774 0 0 1 .395 1.5c0 1.026-.789 1.263-2.842 1.263h-.947v.71h9.946v-.71c-1.816 0-2.605-.395-3.315-2.289L116.52 20h-3.158l.316.789-6.631 18c-1.184 3.158-1.579 3.552-3.947 3.552v.71h8.368v-.71h-.553c-1.974 0-2.921-.395-2.921-1.342a12.2 12.2 0 0 1 .71-2.289l2.131-5.684h7.5z" class="cls-1" data-name="Path 33" transform="translate(-71.129 -20)"/>
            <path id="Path_34" d="M140.373 21.01a13.38 13.38 0 0 1 1.816-.079c5.6 0 7.1 2.605 7.1 6 0 4.342-2.684 6.078-6.71 6.078a22.184 22.184 0 0 1-2.289-.079V21.01zm0 12.63c.553 0 1.026.079 1.895.079.947 0 1.579 0 2.447-.079a29.862 29.862 0 0 1 3.789 3.237l2.368 2.368c3.237 3.237 4.815 4.579 11.21 4.263v-.632c-2.763-.158-4.973-1.5-7.1-3.631l-2.847-2.845a53.9 53.9 0 0 0-4.1-3.789 6.146 6.146 0 0 0 4.815-5.842c0-3.71-3-6.473-9.71-6.473-2.368 0-3.079 0-4.579.079s-3.71.237-4.579.237v.71h.789c2.131 0 2.684.632 2.684 2.921v15.239c0 2.447-.789 3-2.921 3h-.634v.71h10.262v-.71h-.868c-2.052 0-2.921-.553-2.921-2.684v-6.157z" class="cls-1" data-name="Path 34" transform="translate(-77.616 -20.063)"/>
            <path id="Path_35" d="M180.251 23.994c1.184-1.974.474-2.605-1.816-2.605v-.71h8.131v.71a5.025 5.025 0 0 0-4.5 2.842l-6 10.1v5.447c0 1.895.71 2.684 2.921 2.684h.474v.71h-9.946v-.71h.71c2.289 0 2.921-.868 2.921-2.605V34.73l-6.473-10.03c-1.737-2.763-2.605-3.315-4.973-3.394V20.6h9.631v.71c-2.842 0-3 .71-1.973 2.368L175.2 32.6z" class="cls-1" data-name="Path 35" transform="translate(-83.47 -20.126)"/>
            <path id="Path_36" d="M208.983 43.2H192.8v-.71h1.184c1.658 0 2.289-.553 2.289-2.368V24.094c0-1.895-.553-2.684-2.842-2.684h-.474v-.71h10.657v.71h-1.342c-2.368 0-3 .237-3 2.526v16.657c0 .947.395 1.342 1.421 1.342h5.289c2.131 0 2.763-.868 5.052-4.026h.632z" class="cls-1" data-name="Path 36" transform="translate(-90.02 -20.147)"/>
            <path id="Path_37" d="M230.383 31.446h-6.236l3.079-8.368zm.632 1.579l2.447 6.552a3.774 3.774 0 0 1 .395 1.5c0 1.026-.789 1.263-2.842 1.263h-.947v.71h9.946v-.71c-1.816 0-2.605-.395-3.315-2.289L229.12 20h-3.158l.316.789-6.631 18c-1.184 3.158-1.579 3.552-3.947 3.552v.71h8.368v-.71h-.553c-1.974 0-2.921-.395-2.921-1.342a12.2 12.2 0 0 1 .71-2.289l2.131-5.684h7.578z" class="cls-1" data-name="Path 37" transform="translate(-94.843 -20)"/>
            <path id="Path_38" d="M269.945 43.435l-18.709-19.656v15.472c0 2.605.553 3.158 3.631 3.158v.71H246.5v-.71h.158c2.21 0 3-.789 3-2.447V22.279a5.263 5.263 0 0 0-3.079-.868V20.7h5.684l17.051 17.762V24.094c0-2.21-.632-2.605-3.552-2.684v-.71h8.447v.71c-2.684 0-3.316.474-3.316 1.895v20.209h-.947z" class="cls-1" data-name="Path 38" transform="translate(-101.329 -20.147)"/>
            <path id="Path_39" d="M288.473 21.089c.474 0 1.421-.158 2.921-.158 5.052 0 7.657 1.263 9.315 2.921a10.943 10.943 0 0 1 2.921 7.736 11.261 11.261 0 0 1-3 7.815c-2.21 2.21-4.263 2.921-9.157 2.921-2.842 0-3-.474-3-1.974V21.089zm-3 18.709c0 2.131-.868 2.605-2.842 2.605H282v.71h11.6c9.157 0 13.42-6.552 13.42-12 0-6-4.184-10.815-13.815-10.815-1.895 0-4.1 0-6.078.079s-3.789.158-5.131.237v.632h.71c2.131 0 2.763.553 2.763 2.921z" class="cls-1" data-name="Path 39" transform="translate(-108.805 -20.063)"/>
        </g>
        <g id="Group_40" data-name="Group 40" transform="translate(51.227 .81)">
            <path id="Path_40" d="M73.473 2.089h.237c1.263.079 1.5.237 1.5 1.895v4.184c0 3-2.131 3.631-3.868 3.631-2.447 0-3.868-1.263-3.868-3.631V3.195c0-.868.237-1.105 1.184-1.105h.395V1.3H64v.789h.237c1.184 0 1.342.158 1.342 1.105V8.4c0 2.921 2.131 4.736 5.447 4.736 4.1 0 5.526-2.605 5.526-4.815V3.589c0-1.026.316-1.421 1.421-1.421h.237v-.789h-4.737z" class="cls-1" data-name="Path 40" transform="translate(-64 -1.063)"/>
            <path id="Path_41" d="M98.331 2.168h.237c1.421 0 1.5.237 1.5 1.105v6.553L91.937 1.3h-3.158v.789h.237a2.691 2.691 0 0 1 1.263.316v8.762c0 .632-.158.947-1.263.947H88.7v.786h4.657v-.789h-.237c-1.421 0-1.579-.237-1.579-1.342v-7.1l8.841 9.315.079.079h.789V2.8c0-.474 0-.71 1.421-.71h.237V1.3h-4.656v.868z" class="cls-1" data-name="Path 41" transform="translate(-69.202 -1.063)"/>
            <path id="Path_42" d="M113.9 2.11h.237c.947.079 1.105.237 1.105 1.026v7.657c0 1.105-.158 1.263-1.105 1.342h-.237v.789h4.815v-.789h-.237c-1.105 0-1.263-.237-1.263-1.184V3.374c0-1.105.237-1.184 1.263-1.184h.237V1.4H113.9z" class="cls-1" data-name="Path 42" transform="translate(-74.509 -1.084)"/>
            <path id="Path_43" d="M135.473 2.168h.237c1.421 0 1.421.316 1.421.553a2.38 2.38 0 0 1-.316 1.026l-2.605 6.789-3-7.5a.773.773 0 0 1-.079-.553c.158-.237.632-.316 1.579-.395h.237V1.3H127.5v.789h.237c.947 0 1.105.158 1.579 1.263l3.947 9.868h1.184l3.789-9.71c.395-1.026.789-1.421 1.658-1.421h.237V1.3h-4.657z" class="cls-1" data-name="Path 43" transform="translate(-77.373 -1.063)"/>
            <path id="Path_44" d="M159.815 9.983c-.474 1.579-.789 1.895-1.816 1.895h-2.763c-.553 0-.71-.079-.71-.789V7.536h2.842c.553 0 .868 0 1.026 1.184v.237h.789V5.01h-.789v.237c-.079 1.026-.395 1.105-.789 1.105h-3V2.405h3.552c.474 0 .868.158 1.105 1.658V4.3h.789l-.158-3h-9.078v.789h.632c1.026 0 1.184.316 1.184 1.184v7.578c0 .947-.158 1.263-1.421 1.263h-.71v.786h10.025l.316-3.158h-.789z" class="cls-1" data-name="Path 44" transform="translate(-82.217 -1.063)"/>
            <path id="Path_45" d="M182.694 10.594l-1.421-1.421c-.71-.632-1.184-1.184-1.737-1.579a3.2 3.2 0 0 0 2.131-3c0-2.131-1.895-3.394-5.052-3.394a18.616 18.616 0 0 0-2.289.079h-.474a16.618 16.618 0 0 1-1.816.079h-.236v.789h.632c.947 0 1.105.237 1.105 1.184v7.579c0 1.105-.316 1.263-1.184 1.263h-.553v.789h5.526v-.789h-.632c-.947 0-1.184-.237-1.184-1.105V8.3h1.89a12.805 12.805 0 0 1 1.737 1.5l1.184 1.184c1.5 1.5 2.368 2.21 4.973 2.21h1.026v-.789h-.237a5.206 5.206 0 0 1-3.389-1.811zm-7.184-8.6h.632c2.289 0 3.315.868 3.315 2.763s-1.026 2.763-3.079 2.763h-.868z" class="cls-1" data-name="Path 45" transform="translate(-86.703 -1.042)"/>
            <path id="Path_46" d="M199.1 5.973c-1.263-.789-2.447-1.579-2.447-2.605 0-.868.71-1.421 1.737-1.421a2.947 2.947 0 0 1 2.684 1.974l.079.158h.71l-.395-2.763h-.632l-.079.079c-.079.079-.079.079-.158.079a1.858 1.858 0 0 1-.632-.158A4.375 4.375 0 0 0 198.152 1c-1.973 0-3.394 1.184-3.394 2.842 0 1.737 1.658 2.842 3.158 3.789 1.342.868 2.526 1.579 2.526 2.684a2 2 0 0 1-2.21 1.895 2.853 2.853 0 0 1-2.763-2.368l-.079-.158h-.79l.474 3.237h.632l.079-.158c0-.079.079-.079.158-.079a1.637 1.637 0 0 1 .474.158 7.958 7.958 0 0 0 1.973.395c2.21 0 3.868-1.421 3.868-3.315.157-1.896-1.58-3.001-3.158-3.949z" class="cls-1" data-name="Path 46" transform="translate(-91.504 -1)"/>
            <path id="Path_47" d="M213.4 2.11h.237c.947.079 1.105.237 1.105 1.026v7.657c0 1.105-.158 1.263-1.105 1.342h-.237v.789h4.815v-.789h-.237c-1.105 0-1.263-.237-1.263-1.184V3.374c0-1.105.237-1.184 1.263-1.184h.237V1.4H213.4z" class="cls-1" data-name="Path 47" transform="translate(-95.463 -1.084)"/>
            <path id="Path_48" d="M238.52 1v.158a.461.461 0 0 1-.316.079h-8.683a.475.475 0 0 1-.316-.079V1h-.789l-.316 3.394h.789v-.157c.316-1.658.632-1.816 1.105-1.816h2.921V11.1c0 .789-.158 1.105-1.184 1.105h-.868V13h6.157v-.789h-.868c-1.026 0-1.184-.316-1.184-1.105V2.421h2.921c.474 0 .789.158 1.105 1.816v.158h.789L239.31 1z" class="cls-1" data-name="Path 48" transform="translate(-98.559 -1)"/>
            <path id="Path_49" d="M257.989 2.21h.237c.71 0 .868.158.947.237 0 .079.079.237-.237.71l-2.368 4.026-2.684-4.1c-.316-.474-.316-.553-.237-.632 0-.079.158-.158 1.026-.158h.237V1.5h-5.21v.789h.237c1.026 0 1.421.158 2.289 1.579l3.158 4.973v2.447c0 .71-.158 1.026-1.184 1.026h-.553v.786h5.447v-.789h-.474c-1.026 0-1.184-.316-1.184-1.105V8.6l3-4.973a2.3 2.3 0 0 1 2.052-1.342h.237V1.5h-4.5v.71z" class="cls-1" data-name="Path 49" transform="translate(-103.108 -1.105)"/>
            <path id="Path_50" d="M285.089 1c-3.947 0-6.789 2.684-6.789 6.315 0 3.315 2.921 5.842 6.71 5.842a6.376 6.376 0 0 0 6.631-6.394c0-3.237-2.841-5.763-6.552-5.763zm-.474.868c2.842 0 4.894 2.21 4.894 5.447 0 2.368-1.263 4.894-4.1 4.894s-4.973-2.368-4.973-5.526c-.005-1.894 1.101-4.815 4.179-4.815z" class="cls-1" data-name="Path 50" transform="translate(-109.131 -1)"/>
            <path id="Path_51" d="M306.673 2.405c.947 0 1.263.316 1.263 1.263v.237h.789V1.3H300.2v.789h.237c1.026 0 1.105.316 1.105 1.421v7.026c0 1.421-.158 1.5-1.105 1.5h-.237v.789h4.815v-.789h-.237c-1.263 0-1.342-.316-1.342-1.184V7.3h3.079c.71 0 1.026.158 1.026 1.105v.237h.789V5.01h-.789v.237c-.079.789-.395.947-.789.947h-3.315V2.405z" class="cls-1" data-name="Path 51" transform="translate(-113.743 -1.063)"/>
        </g>
        <g id="Group_48" data-name="Group 48" transform="translate(1.7 .1)">
            <g id="Group_41" data-name="Group 41">
                <path id="Path_52" d="M21.672 40.1a20 20 0 1 1 19.972-20 19.958 19.958 0 0 1-19.972 20z" class="cls-1" data-name="Path 52" transform="translate(-1.7 -.1)"/>
            </g>
            <g id="Group_42" data-name="Group 42">
                <path id="Path_53" d="M21.672 40.1a20 20 0 1 1 19.972-20 19.958 19.958 0 0 1-19.972 20zm0-39.684a19.763 19.763 0 1 0 19.735 19.763A19.756 19.756 0 0 0 21.672.416z" class="cls-1" data-name="Path 53" transform="translate(-1.7 -.1)"/>
            </g>
            <path id="Path_54" d="M46.751 24.9a1.913 1.913 0 0 1-.71.632 8.093 8.093 0 0 1-2.131.789 27.7 27.7 0 0 1-3.315.632c-1.263.158-2.684.316-4.184.474-1.895.158-3.158.237-4.657.316-1.658.079-3.315.079-5.052.079v5.052c.079 7.578.079 7.578.316 12.236A19.776 19.776 0 0 0 46.83 25.295c-.079 0-.079-.237-.079-.395z" class="cls-1" data-name="Path 54" transform="translate(-6.965 -5.267)"/>
            <g id="Group_43" data-name="Group 43" transform="translate(19.656 21.054)">
                <path id="Path_55" d="M26.6 29.31v4.421c3.158 3 3.158 3 4.5 4.342a71.551 71.551 0 0 0 .553-8.841V28.6c-1.974.079-3.315.079-5.052.079z" class="cls-1" data-name="Path 55" transform="translate(-26.6 -27.1)"/>
                <path id="Path_56" d="M34.157 43.894a20.859 20.859 0 0 0-2.763-3.394c-.71 4.815-1.895 7.815-3.394 7.894h.474a1 1 0 0 0 .474-.079c2.131-.158 3.867-1.737 5.209-4.421z" class="cls-1" data-name="Path 56" transform="translate(-26.895 -29.606)"/>
                <path id="Path_57" d="M38.01 34.6s-1.105 5.921-2.21 8.131a2.669 2.669 0 0 1 .395 2.447 15.186 15.186 0 0 0 4.579-6.394A13.9 13.9 0 0 0 38.01 34.6z" class="cls-1" data-name="Path 57" transform="translate(-28.538 -28.364)"/>
                <path id="Path_58" d="M31.395 49.716c.395-.079.395-.158 1.184-.316l.474-.158c1.5-.474 1.737-.71 2.21-1.342A9.726 9.726 0 0 1 31 49.716z" class="cls-1" data-name="Path 58" transform="translate(-27.527 -31.165)"/>
                <path id="Path_59" d="M42.495 40.357a19.63 19.63 0 0 0 4.579-13.025V26.7a27.7 27.7 0 0 1-3.315.632v.632a23.278 23.278 0 0 1-1.659 9.077 3.958 3.958 0 0 1 .395 3.316z" class="cls-1" data-name="Path 59" transform="translate(-29.864 -26.7)"/>
                <path id="Path_60" d="M37.757 28.1c-1.895.158-3.158.237-4.657.316 2.684 2.842 3.315 3.473 4.421 4.815a40.381 40.381 0 0 0 .237-4.421l-.001-.71z" class="cls-1" data-name="Path 60" transform="translate(-27.969 -26.995)"/>
            </g>
            <path id="Path_61" d="M21.5 1.326A10.235 10.235 0 0 1 25.842.3 19.369 19.369 0 0 0 21.5 1.326" class="cls-1" data-name="Path 61" transform="translate(-5.87 -.142)"/>
            <g id="Group_44" data-name="Group 44" transform="translate(19.735 7.991)">
                <path id="Path_62" d="M40.2 23.857c-1.026-.158-1.895-1.895-1.421-3.631-1.421 1.026-3.079-1.026-2.842-3 .158-1.026.789-1.895 1.974-1.5a28.861 28.861 0 0 0-1.737-4.579c-1.026.158-2.131.237-3.315.316 1.026 1.579 0 3.079-1.421 2.842a2.221 2.221 0 0 1-1.817-2.605 1.812 1.812 0 0 1-2.842-1.5c-.079 4.026-.079 9.157-.079 14.525a97.232 97.232 0 0 0 13.893-.868H40.2z" class="cls-1" data-name="Path 62" transform="translate(-26.7 -10.2)"/>
            </g>
            <g id="Group_45" data-name="Group 45" transform="translate(5.605 21.607)">
                <path id="Path_63" d="M10.379 31.426c1.5-.553 3.315 1.974 2.684 3.71a1.217 1.217 0 0 1-1.895.553 23.748 23.748 0 0 0 1.658 4.026c1.026.158 2.21.237 3.473.395-1.026-1.263-.237-2.289 1.184-2.21 1.184.079 2.763 1.026 2.368 2.368 1.026-.474 2.842-.079 3.079 1.263-.079-3-.079-7.341-.079-12.473v-.632c-1.658 0-3.394-.079-5.052-.158a61.071 61.071 0 0 1-9-.868c1.501.474 1.975 2.763 1.58 4.026z" class="cls-1" data-name="Path 63" transform="translate(-8.8 -27.4)"/>
            </g>
            <path id="Path_64" d="M38.9 8.958c.237 0 .395-.079.553-.079 1.105-.237 3.71-.789 3.71-1.579A10.514 10.514 0 0 1 44.9 9.747a3.848 3.848 0 0 1 .237.553 2.93 2.93 0 0 1 .158.71.338.338 0 0 1-.553.316h-.079a3.542 3.542 0 0 1-1.579-1.816c-.553.158-1.342.553-2.052.71-.079 0-.237.079-.316.079a22.973 22.973 0 0 1 2.21 4.657c1.026-1.026 2.526.868 2.605 2.684.079 1.105-.474 2.052-1.421 1.658.789 1.5.553 3.631-.947 4.1A28.869 28.869 0 0 0 38.9 8.958" class="cls-1" data-name="Path 64" transform="translate(-9.534 -1.616)"/>
            <path id="Path_65" d="M36.31 7.5c-2.526-3.868-4.5-5.289-7.1-6.236A18.448 18.448 0 0 0 26.837.4a3.817 3.817 0 0 0 1.579 1.105c-.079.237 0 .71.789 1.342.158.079.237.158.395.237 1.263.71 1.579.158 1.658-.079a8.559 8.559 0 0 1 2.052 1.816A18.37 18.37 0 0 1 34.573 6.4c-.789.079-1.816.158-2.921.237A2.385 2.385 0 0 0 30.073 4.5c-1.263-.474-1.658 1.026-1.105 2.052C27.942 6 26.837 6.478 26.6 8.057a69.363 69.363 0 0 0 9.71-.557" class="cls-1" data-name="Path 65" transform="translate(-6.944 -.163)"/>
            <path id="Path_66" d="M36.82 3.852v-.158a.077.077 0 0 1 .079-.079.077.077 0 0 1 .079-.079c.237-.079.789-.158 2.447.947A19.834 19.834 0 0 0 29.163.379 9.983 9.983 0 0 0 27.9.3a5.55 5.55 0 0 1 1.816.395c.158.079.237.079.316.158a2.93 2.93 0 0 1 .71.158c.316.079.789.316 1.263.474.474.237 1.105.71 1.105.947-.079.079-.158.079-.474 0A32.744 32.744 0 0 1 36.5 5.984c.71-.158 1.737-.237 2.21-.395a5.082 5.082 0 0 1-1.89-1.737z" class="cls-1" data-name="Path 66" transform="translate(-7.218 -.142)"/>
            <path id="Path_67" d="M11.873 40.82a13.277 13.277 0 0 1-3.315-.868.244.244 0 0 0-.158-.079 26.086 26.086 0 0 1-1.816-2.053c-.632-.789-1.105-1.658-1.184-1.737h.237c.868.316 2.289 2.763 2.289 2.763a10.313 10.313 0 0 0 2.131.553 22.15 22.15 0 0 1-2.052-4.1c-1.263.632-2.842-2.605-2.289-4.026.158-.316.474-.868 1.263-.237-.632-1.426-.474-3.636 1.026-3.636.079 4.815.789 8.92 3.868 13.42" class="cls-1" data-name="Path 67" transform="translate(-2.479 -5.793)"/>
            <path id="Path_68" d="M23.941 45.326c-.158.71-1.105 1.342-2.526.789.632.868.079 1.579-1.026 1.342-.868-.158-1.895-.868-1.974-1.579a27.608 27.608 0 0 1-2.921-.316 12.948 12.948 0 0 0 2.763 2.368c.158-.079.316 0 .868.158.789.237 1.5.632 2.21.868h-.158a8.292 8.292 0 0 0-1.026-.158c-1.5-.316-4.026-1.105-6.552-4.5a64.343 64.343 0 0 0 10.341.71v.316" class="cls-1" data-name="Path 68" transform="translate(-4.206 -9.352)"/>
            <path id="Path_69" d="M21.614.3A19.954 19.954 0 0 0 1.8 19.719s.079.237.553.474a8.176 8.176 0 0 0 1.816.789c1.026.237 2.052.474 3.079.632a74.1 74.1 0 0 0 9 .868c1.658.079 3.394.158 5.052.158V8.115c.237-3.631.237-7.341.316-7.815z" class="cls-1" data-name="Path 69" transform="translate(-1.721 -.142)"/>
            <path id="Path_70" d="M37.9 46.763a19.99 19.99 0 0 1-2.842 1.263c-.395.158-.789.237-1.263.395 2.684-.71 6.315-3.71 6.947-4.421a4.032 4.032 0 0 1-1.342 1.816c-.232.158-1.179.789-1.5.947z" class="cls-1" data-name="Path 70" transform="translate(-8.46 -9.289)"/>
            <path id="Path_71" d="M4.416 21.762a5.642 5.642 0 0 1-1.816-.79A20.584 20.584 0 0 1 12.546 4a8.758 8.758 0 0 0-2.684 3.631 22.678 22.678 0 0 0-5.447 14.13" class="cls-1" data-name="Path 71" transform="translate(-1.89 -.921)"/>
            <path id="Path_72" d="M15.3 3.221A10.892 10.892 0 0 1 19.879.853 18.349 18.349 0 0 1 24.536.3 19.325 19.325 0 0 0 15.3 3.221" class="cls-1" data-name="Path 72" transform="translate(-4.564 -.142)"/>
            <path id="Path_73" d="M12.826 25.157C11.405 25 9.984 24.841 8.8 24.6a28.157 28.157 0 0 1 2.131-10.1 16.522 16.522 0 0 0 2.369 5.447 29.07 29.07 0 0 0-.474 5.21" class="cls-1" data-name="Path 73" transform="translate(-3.195 -3.111)"/>
            <path id="Path_74" d="M25.5 8.136c0 2.21 0 4.421-.079 6.157v3.237A57.556 57.556 0 0 1 21 12.557C21.947 6.4 23.684 1.505 25.657.4c-.078.474-.078 4.026-.157 7.736z" class="cls-1" data-name="Path 74" transform="translate(-5.765 -.163)"/>
            <g id="Group_46" data-name="Group 46" transform="translate(10.104 7.753)">
                <path id="Path_75" d="M17.184 9.9a31.114 31.114 0 0 0-2.684 9.157 40.844 40.844 0 0 0 4.342 5.526 68.127 68.127 0 0 1 .789-10.1A14.535 14.535 0 0 1 17.184 9.9z" class="cls-1" data-name="Path 75" transform="translate(-14.5 -9.9)"/>
            </g>
            <path id="Path_76" d="M48.741 25.532v.632a18.377 18.377 0 0 1-8.762 16.1l-.079.079a20.4 20.4 0 0 0 7.736-8.443 20.347 20.347 0 0 0 1.895-9 2.419 2.419 0 0 1-.79.632z" class="cls-2" data-name="Path 76" transform="translate(-9.745 -5.267)"/>
            <g id="Group_47" data-name="Group 47" transform="translate(7.586 1.184)">
                <path id="Path_77" d="M19.354 1.6a18.671 18.671 0 0 0-7.578 5.526 9.621 9.621 0 0 0-.316 4.736 21.963 21.963 0 0 1 5.21-7.578A5.483 5.483 0 0 1 19.354 1.6z" class="cls-1" data-name="Path 77" transform="translate(-11.31 -1.6)"/>
            </g>
            <path id="Path_78" d="M17.826 7.878a5.4 5.4 0 0 1 .158-3.868A13.573 13.573 0 0 1 25.009.3c-2.842.71-5.368 3.631-7.184 7.578" class="cls-1" data-name="Path 78" transform="translate(-5.037 -.142)"/>
        </g>
    </g>
</svg>
