<svg xmlns="http://www.w3.org/2000/svg" width="58" height="58" viewBox="0 0 58 58">
    <defs>
        <style>
            .cls-1{fill:#fff;opacity:.8}.cls-2{fill:#021c4d}
        </style>
    </defs>
    <g id="slide_btn" transform="translate(-931 -14189)">
        <circle id="Ellipse_30" cx="29" cy="29" r="29" class="cls-1" data-name="Ellipse 30" transform="translate(931 14189)"/>
        <g id="Group_142" data-name="Group 142" transform="translate(949.863 14212.208)">
            <g id="right-arrow" transform="translate(14.356)">
                <g id="Group_141" data-name="Group 141">
                    <path id="Path_85" d="M107.9 5.177l-5-5a.616.616 0 0 0-.869 0l-.368.368a.615.615 0 0 0 0 .869l4.2 4.2-4.2 4.2a.616.616 0 0 0 0 .869l.368.368a.616.616 0 0 0 .869 0l5-5a.62.62 0 0 0 0-.872z" class="cls-2" data-name="Path 85" transform="translate(-101.478)"/>
                </g>
            </g>
            <g id="right-arrow-2" data-name="right-arrow" transform="rotate(180 3.298 5.615)">
                <g id="Group_141-2" data-name="Group 141">
                    <path id="Path_85-2" d="M6.418 5.177l-5-5a.616.616 0 0 0-.869 0l-.365.37a.615.615 0 0 0 0 .869l4.2 4.2-4.2 4.2a.616.616 0 0 0 0 .869l.368.368a.616.616 0 0 0 .869 0l5-5a.62.62 0 0 0 0-.872z" class="cls-2" data-name="Path 85"/>
                </g>
            </g>
        </g>
    </g>
</svg>
